[
	{
		"city": "Covilha", "temperature": 36, "timestamp": "1598868175505", "country": "Protugal", "month": "June"
	},
	{
		"city": "Covilha", "temperature": 36, "timestamp": "1598868175505", "country": "Protugal", "month": "June"
	},
	{
		"city": "Covilha", "temperature": 37, "timestamp": "1598868175505", "country": "Protugal", "month": "June"
	},
	{
		"city": "Covilha", "temperature": 38, "timestamp": "1598868175505", "country": "Protugal", "month": "June"
	},
	{
		"city": "Covilha", "temperature": 39, "timestamp": "1598868175505", "country": "Protugal", "month": "June"
	},
	{
		"city": "Sfax", "temperature": 25, "timestamp": "1598868175505", "country": "Tunisia", "month": "June"
	},
	{
		"city": "Sfax", "temperature": 26, "timestamp": "1598868175505", "country": "Tunisia", "month": "June"
	},
	{
		"city": "Sfax", "temperature": 27, "timestamp": "1598868175505", "country": "Tunisia", "month": "June"
	},
	{
		"city": "Sfax", "temperature": 28, "timestamp": "1598868175505", "country": "Tunisia", "month": "June"
	},
	{
		"city": "Sfax", "temperature": 29, "timestamp": "1598868175505", "country": "Tunisia", "month": "June"
	}
]
		